%YAML 1.1
%TAG !u! tag:unity3d.com,2011:
--- !u!21 &2100000
Material:
  serializedVersion: 6
  m_ObjectHideFlags: 0
  m_CorrespondingSourceObject: {fileID: 0}
  m_PrefabInstance: {fileID: 0}
  m_PrefabAsset: {fileID: 0}
  m_Name: SVN-Gilroy Regular SDF Dropshadow
  m_Shader: {fileID: 4800000, guid: 68e6db2ebdc24f95958faec2be5558d6, type: 3}
  m_ShaderKeywords: BEVEL_ON GLOW_ON UNDERLAY_ON
  m_LightmapFlags: 4
  m_EnableInstancingVariants: 0
  m_DoubleSidedGI: 0
  m_CustomRenderQueue: -1
  stringTagMap: {}
  disabledShaderPasses: []
  m_SavedProperties:
    serializedVersion: 3
    m_TexEnvs:
    - _BumpMap:
        m_Texture: {fileID: 0}
        m_Scale: {x: 1, y: 1}
        m_Offset: {x: 0, y: 0}
    - _Cube:
        m_Texture: {fileID: 0}
        m_Scale: {x: 1, y: 1}
        m_Offset: {x: 0, y: 0}
    - _FaceTex:
        m_Texture: {fileID: 0}
        m_Scale: {x: 1, y: 1}
        m_Offset: {x: 0, y: 0}
    - _MainTex:
        m_Texture: {fileID: -919441118241820255, guid: 56c1c01e444756046898a5536dda8651, type: 2}
        m_Scale: {x: 1, y: 1}
        m_Offset: {x: 0, y: 0}
    - _MaskTex:
        m_Texture: {fileID: 0}
        m_Scale: {x: 1, y: 1}
        m_Offset: {x: 0, y: 0}
    - _OutlineTex:
        m_Texture: {fileID: 0}
        m_Scale: {x: 1, y: 1}
        m_Offset: {x: 0, y: 0}
    m_Floats:
    - _Ambient: 0.672
    - _Bevel: 0.875
    - _BevelClamp: 0
    - _BevelOffset: -0.069
    - _BevelRoundness: 0.564
    - _BevelWidth: 0.383
    - _BumpFace: 0
    - _BumpOutline: 0
    - _ColorMask: 15
    - _CullMode: 0
    - _Diffuse: 0.406
    - _FaceDilate: 0.22
    - _FaceShininess: 0.18
    - _FaceUVSpeedX: 0
    - _FaceUVSpeedY: 0
    - _GlowInner: 0.123
    - _GlowOffset: 0.15
    - _GlowOuter: 1
    - _GlowPower: 0.247
    - _GradientScale: 21
    - _LightAngle: 3.5
    - _MaskEdgeSoftness: 0.01
    - _MaskInverse: 0
    - _MaskSoftnessX: 0
    - _MaskSoftnessY: 0
    - _MaskWipeControl: 0.5
    - _OutlineShininess: 0.334
    - _OutlineSoftness: 0
    - _OutlineUVSpeedX: 0
    - _OutlineUVSpeedY: 0
    - _OutlineWidth: 0
    - _Padding: 0
    - _PerspectiveFilter: 0.875
    - _Reflectivity: 9.06
    - _ScaleRatioA: 0.95238096
    - _ScaleRatioB: 0.563147
    - _ScaleRatioC: 0.64761907
    - _ScaleX: 1
    - _ScaleY: 1
    - _ShaderFlags: 1
    - _Sharpness: 0
    - _SpecularPower: 3
    - _Stencil: 0
    - _StencilComp: 8
    - _StencilOp: 0
    - _StencilReadMask: 3
    - _StencilWriteMask: 0
    - _TextureHeight: 2048
    - _TextureWidth: 2048
    - _UnderlayDilate: 0.01
    - _UnderlayOffsetX: 0.398
    - _UnderlayOffsetY: 0.18
    - _UnderlaySoftness: 0
    - _VertexOffsetX: 0
    - _VertexOffsetY: 0
    - _WeightBold: 0.4
    - _WeightNormal: 0
    m_Colors:
    - _ClipRect: {r: -32767, g: -32767, b: 32767, a: 32767}
    - _EnvMatrixRotation: {r: 0, g: 0, b: 0, a: 0}
    - _FaceColor: {r: 1, g: 1, b: 1, a: 1}
    - _GlowColor: {r: 1, g: 0.48037386, b: 0, a: 0.5}
    - _MaskCoord: {r: 0, g: 0, b: 32767, a: 32767}
    - _MaskEdgeColor: {r: 1, g: 1, b: 1, a: 1}
    - _OutlineColor: {r: 0, g: 0, b: 0, a: 1}
    - _ReflectFaceColor: {r: 0, g: 0, b: 0, a: 1}
    - _ReflectOutlineColor: {r: 0, g: 0, b: 0, a: 1}
    - _SpecColor: {r: 0, g: 0, b: 0, a: 1}
    - _SpecularColor: {r: 1, g: 1, b: 1, a: 1}
    - _UnderlayColor: {r: 0, g: 0, b: 0, a: 0.30588236}
  m_BuildTextureStacks: []
