%YAML 1.1
%TAG !u! tag:unity3d.com,2011:
--- !u!1045 &1
EditorBuildSettings:
  m_ObjectHideFlags: 0
  serializedVersion: 2
  m_Scenes:
  - enabled: 0
    path: Assets/_MyAssets/Scenes/SampleScene.unity
    guid: 2cda990e2423bbf4892e6590ba056729
  - enabled: 1
    path: Assets/_MyAssets/Scenes/MainScene.unity
    guid: c3cf9a3038809944dafadb8f0cafa235
  m_configObjects:
    com.unity.addressableassets: {fileID: 11400000, guid: c08fe7f4c00c84888a06eff69ffc47a9, type: 2}
